%YAML 1.1
%TAG !u! tag:unity3d.com,2011:
--- !u!1 &7615126116952853632
GameObject:
  m_ObjectHideFlags: 0
  m_CorrespondingSourceObject: {fileID: 0}
  m_PrefabInstance: {fileID: 0}
  m_PrefabAsset: {fileID: 0}
  serializedVersion: 6
  m_Component:
  - component: {fileID: 7615126116952559776}
  m_Layer: 0
  m_Name: thumb_02_r
  m_TagString: Untagged
  m_Icon: {fileID: 0}
  m_NavMeshLayer: 0
  m_StaticEditorFlags: 0
  m_IsActive: 1
--- !u!4 &7615126116952559776
Transform:
  m_ObjectHideFlags: 0
  m_CorrespondingSourceObject: {fileID: 0}
  m_PrefabInstance: {fileID: 0}
  m_PrefabAsset: {fileID: 0}
  m_GameObject: {fileID: 7615126116952853632}
  m_LocalRotation: {x: 0.15024641, y: -0.25916702, z: 0.1509613, w: 0.9420558}
  m_LocalPosition: {x: 0.00000016763806, y: 0.030384973, z: -0.00000037252903}
  m_LocalScale: {x: 1, y: 1.0000001, z: 1}
  m_Children: []
  m_Father: {fileID: 7615126116952559788}
  m_RootOrder: 0
  m_LocalEulerAnglesHint: {x: 0, y: 0, z: 0}
--- !u!1 &7615126116952853640
GameObject:
  m_ObjectHideFlags: 0
  m_CorrespondingSourceObject: {fileID: 0}
  m_PrefabInstance: {fileID: 0}
  m_PrefabAsset: {fileID: 0}
  serializedVersion: 6
  m_Component:
  - component: {fileID: 7615126116952559784}
  - component: {fileID: 7615126116945575688}
  m_Layer: 0
  m_Name: Stickman_Football_7
  m_TagString: Untagged
  m_Icon: {fileID: 0}
  m_NavMeshLayer: 0
  m_StaticEditorFlags: 0
  m_IsActive: 1
--- !u!4 &7615126116952559784
Transform:
  m_ObjectHideFlags: 0
  m_CorrespondingSourceObject: {fileID: 0}
  m_PrefabInstance: {fileID: 0}
  m_PrefabAsset: {fileID: 0}
  m_GameObject: {fileID: 7615126116952853640}
  m_LocalRotation: {x: 0, y: 0, z: 0, w: 1}
  m_LocalPosition: {x: 0, y: 0, z: 0}
  m_LocalScale: {x: 1, y: 1, z: 1}
  m_Children:
  - {fileID: 7615126116952559848}
  - {fileID: 7615126116952559850}
  - {fileID: 7615126116952559852}
  - {fileID: 7615126116952559854}
  - {fileID: 7615126116952559840}
  - {fileID: 7615126116952559842}
  - {fileID: 7615126116952559828}
  - {fileID: 7615126116952559830}
  m_Father: {fileID: 0}
  m_RootOrder: 0
  m_LocalEulerAnglesHint: {x: 0, y: 0, z: 0}
--- !u!95 &7615126116945575688
Animator:
  serializedVersion: 3
  m_ObjectHideFlags: 0
  m_CorrespondingSourceObject: {fileID: 0}
  m_PrefabInstance: {fileID: 0}
  m_PrefabAsset: {fileID: 0}
  m_GameObject: {fileID: 7615126116952853640}
  m_Enabled: 1
  m_Avatar: {fileID: 9000000, guid: 9b1cce188c94efc42a1707c474a2539f, type: 3}
  m_Controller: {fileID: 0}
  m_CullingMode: 1
  m_UpdateMode: 0
  m_ApplyRootMotion: 0
  m_LinearVelocityBlending: 0
  m_WarningMessage: 
  m_HasTransformHierarchy: 1
  m_AllowConstantClipSamplingOptimization: 1
  m_KeepAnimatorControllerStateOnDisable: 0
--- !u!1 &7615126116952853642
GameObject:
  m_ObjectHideFlags: 0
  m_CorrespondingSourceObject: {fileID: 0}
  m_PrefabInstance: {fileID: 0}
  m_PrefabAsset: {fileID: 0}
  serializedVersion: 6
  m_Component:
  - component: {fileID: 7615126116952559786}
  m_Layer: 0
  m_Name: thumb_01_l
  m_TagString: Untagged
  m_Icon: {fileID: 0}
  m_NavMeshLayer: 0
  m_StaticEditorFlags: 0
  m_IsActive: 1
--- !u!4 &7615126116952559786
Transform:
  m_ObjectHideFlags: 0
  m_CorrespondingSourceObject: {fileID: 0}
  m_PrefabInstance: {fileID: 0}
  m_PrefabAsset: {fileID: 0}
  m_GameObject: {fileID: 7615126116952853642}
  m_LocalRotation: {x: -0.45054716, y: 0.32309443, z: 0.17324454, w: 0.81400466}
  m_LocalPosition: {x: -0.03636043, y: 0.02631452, z: -0.026515014}
  m_LocalScale: {x: 0.9999998, y: 1, z: 1}
  m_Children:
  - {fileID: 7615126116952559790}
  m_Father: {fileID: 7615126116952559862}
  m_RootOrder: 1
  m_LocalEulerAnglesHint: {x: 0, y: 0, z: 0}
--- !u!1 &7615126116952853644
GameObject:
  m_ObjectHideFlags: 0
  m_CorrespondingSourceObject: {fileID: 0}
  m_PrefabInstance: {fileID: 0}
  m_PrefabAsset: {fileID: 0}
  serializedVersion: 6
  m_Component:
  - component: {fileID: 7615126116952559788}
  m_Layer: 0
  m_Name: thumb_01_r
  m_TagString: Untagged
  m_Icon: {fileID: 0}
  m_NavMeshLayer: 0
  m_StaticEditorFlags: 0
  m_IsActive: 1
--- !u!4 &7615126116952559788
Transform:
  m_ObjectHideFlags: 0
  m_CorrespondingSourceObject: {fileID: 0}
  m_PrefabInstance: {fileID: 0}
  m_PrefabAsset: {fileID: 0}
  m_GameObject: {fileID: 7615126116952853644}
  m_LocalRotation: {x: -0.45054713, y: -0.3230944, z: -0.17324437, w: 0.8140047}
  m_LocalPosition: {x: 0.036360405, y: 0.026314432, z: -0.026515007}
  m_LocalScale: {x: 1.0000001, y: 1.0000001, z: 1}
  m_Children:
  - {fileID: 7615126116952559776}
  m_Father: {fileID: 7615126116952559832}
  m_RootOrder: 1
  m_LocalEulerAnglesHint: {x: 0, y: 0, z: 0}
--- !u!1 &7615126116952853646
GameObject:
  m_ObjectHideFlags: 0
  m_CorrespondingSourceObject: {fileID: 0}
  m_PrefabInstance: {fileID: 0}
  m_PrefabAsset: {fileID: 0}
  serializedVersion: 6
  m_Component:
  - component: {fileID: 7615126116952559790}
  m_Layer: 0
  m_Name: thumb_02_l
  m_TagString: Untagged
  m_Icon: {fileID: 0}
  m_NavMeshLayer: 0
  m_StaticEditorFlags: 0
  m_IsActive: 1
--- !u!4 &7615126116952559790
Transform:
  m_ObjectHideFlags: 0
  m_CorrespondingSourceObject: {fileID: 0}
  m_PrefabInstance: {fileID: 0}
  m_PrefabAsset: {fileID: 0}
  m_GameObject: {fileID: 7615126116952853646}
  m_LocalRotation: {x: 0.15024652, y: 0.25916708, z: -0.15096144, w: 0.94205576}
  m_LocalPosition: {x: -0.00000030733645, y: 0.030384935, z: -0.00000040605664}
  m_LocalScale: {x: 0.99999994, y: 1, z: 1.0000001}
  m_Children: []
  m_Father: {fileID: 7615126116952559786}
  m_RootOrder: 0
  m_LocalEulerAnglesHint: {x: 0, y: 0, z: 0}
--- !u!1 &7615126116952853664
GameObject:
  m_ObjectHideFlags: 0
  m_CorrespondingSourceObject: {fileID: 0}
  m_PrefabInstance: {fileID: 0}
  m_PrefabAsset: {fileID: 0}
  serializedVersion: 6
  m_Component:
  - component: {fileID: 7615126116952559808}
  m_Layer: 0
  m_Name: Pelvis
  m_TagString: Untagged
  m_Icon: {fileID: 0}
  m_NavMeshLayer: 0
  m_StaticEditorFlags: 0
  m_IsActive: 1
--- !u!4 &7615126116952559808
Transform:
  m_ObjectHideFlags: 0
  m_CorrespondingSourceObject: {fileID: 0}
  m_PrefabInstance: {fileID: 0}
  m_PrefabAsset: {fileID: 0}
  m_GameObject: {fileID: 7615126116952853664}
  m_LocalRotation: {x: 0.70839757, y: 3.2004403e-15, z: 0.00000008513868, w: 0.70581365}
  m_LocalPosition: {x: -1.032682e-30, y: 0.008057052, z: 0.53631413}
  m_LocalScale: {x: 1, y: 1, z: 1}
  m_Children:
  - {fileID: 7615126116952559816}
  - {fileID: 7615126116952559834}
  - {fileID: 7615126116952559824}
  m_Father: {fileID: 7615126116952559828}
  m_RootOrder: 0
  m_LocalEulerAnglesHint: {x: 0, y: 0, z: 0}
--- !u!1 &7615126116952853666
GameObject:
  m_ObjectHideFlags: 0
  m_CorrespondingSourceObject: {fileID: 0}
  m_PrefabInstance: {fileID: 0}
  m_PrefabAsset: {fileID: 0}
  serializedVersion: 6
  m_Component:
  - component: {fileID: 7615126116952559810}
  m_Layer: 0
  m_Name: Right_clavicle
  m_TagString: Untagged
  m_Icon: {fileID: 0}
  m_NavMeshLayer: 0
  m_StaticEditorFlags: 0
  m_IsActive: 1
--- !u!4 &7615126116952559810
Transform:
  m_ObjectHideFlags: 0
  m_CorrespondingSourceObject: {fileID: 0}
  m_PrefabInstance: {fileID: 0}
  m_PrefabAsset: {fileID: 0}
  m_GameObject: {fileID: 7615126116952853666}
  m_LocalRotation: {x: -0.59568423, y: -0.41705662, z: -0.45295465, w: 0.51580644}
  m_LocalPosition: {x: 0.028851632, y: 0.23799899, z: 0.02212884}
  m_LocalScale: {x: 0.99999994, y: 1, z: 1}
  m_Children:
  - {fileID: 7615126116952559838}
  m_Father: {fileID: 7615126116952559826}
  m_RootOrder: 2
  m_LocalEulerAnglesHint: {x: 0, y: 0, z: 0}
--- !u!1 &7615126116952853668
GameObject:
  m_ObjectHideFlags: 0
  m_CorrespondingSourceObject: {fileID: 0}
  m_PrefabInstance: {fileID: 0}
  m_PrefabAsset: {fileID: 0}
  serializedVersion: 6
  m_Component:
  - component: {fileID: 7615126116952559812}
  m_Layer: 0
  m_Name: Right_Elbow
  m_TagString: Untagged
  m_Icon: {fileID: 0}
  m_NavMeshLayer: 0
  m_StaticEditorFlags: 0
  m_IsActive: 1
--- !u!4 &7615126116952559812
Transform:
  m_ObjectHideFlags: 0
  m_CorrespondingSourceObject: {fileID: 0}
  m_PrefabInstance: {fileID: 0}
  m_PrefabAsset: {fileID: 0}
  m_GameObject: {fileID: 7615126116952853668}
  m_LocalRotation: {x: -0.16277447, y: -0.082741104, z: -0.09344994, w: 0.9787367}
  m_LocalPosition: {x: 0.000000033527613, y: 0.21563266, z: -0.000000018626451}
  m_LocalScale: {x: 0.9999999, y: 0.99999994, z: 1}
  m_Children:
  - {fileID: 7615126116952559832}
  m_Father: {fileID: 7615126116952559838}
  m_RootOrder: 0
  m_LocalEulerAnglesHint: {x: 0, y: 0, z: 0}
--- !u!1 &7615126116952853670
GameObject:
  m_ObjectHideFlags: 0
  m_CorrespondingSourceObject: {fileID: 0}
  m_PrefabInstance: {fileID: 0}
  m_PrefabAsset: {fileID: 0}
  serializedVersion: 6
  m_Component:
  - component: {fileID: 7615126116952559814}
  m_Layer: 0
  m_Name: Right_Foot
  m_TagString: Untagged
  m_Icon: {fileID: 0}
  m_NavMeshLayer: 0
  m_StaticEditorFlags: 0
  m_IsActive: 1
--- !u!4 &7615126116952559814
Transform:
  m_ObjectHideFlags: 0
  m_CorrespondingSourceObject: {fileID: 0}
  m_PrefabInstance: {fileID: 0}
  m_PrefabAsset: {fileID: 0}
  m_GameObject: {fileID: 7615126116952853670}
  m_LocalRotation: {x: -0.6994658, y: 0.16125739, z: -0.21227793, w: 0.66308504}
  m_LocalPosition: {x: 0.000415414, y: 0.26951534, z: 0.000111143105}
  m_LocalScale: {x: 1, y: 0.9999999, z: 0.9999998}
  m_Children: []
  m_Father: {fileID: 7615126116952559836}
  m_RootOrder: 0
  m_LocalEulerAnglesHint: {x: 0, y: 0, z: 0}
--- !u!1 &7615126116952853672
GameObject:
  m_ObjectHideFlags: 0
  m_CorrespondingSourceObject: {fileID: 0}
  m_PrefabInstance: {fileID: 0}
  m_PrefabAsset: {fileID: 0}
  serializedVersion: 6
  m_Component:
  - component: {fileID: 7615126116952559816}
  m_Layer: 0
  m_Name: Left_Hips
  m_TagString: Untagged
  m_Icon: {fileID: 0}
  m_NavMeshLayer: 0
  m_StaticEditorFlags: 0
  m_IsActive: 1
--- !u!4 &7615126116952559816
Transform:
  m_ObjectHideFlags: 0
  m_CorrespondingSourceObject: {fileID: 0}
  m_PrefabInstance: {fileID: 0}
  m_PrefabAsset: {fileID: 0}
  m_GameObject: {fileID: 7615126116952853672}
  m_LocalRotation: {x: 0.99938756, y: -0.023358645, z: -0.022989275, w: 0.012262651}
  m_LocalPosition: {x: -0.1377164, y: 0.032404862, z: 0.0038952762}
  m_LocalScale: {x: 1.0000128, y: 0.99999994, z: 1.000004}
  m_Children:
  - {fileID: 7615126116952559818}
  m_Father: {fileID: 7615126116952559808}
  m_RootOrder: 0
  m_LocalEulerAnglesHint: {x: 0, y: 0, z: 0}
--- !u!1 &7615126116952853674
GameObject:
  m_ObjectHideFlags: 0
  m_CorrespondingSourceObject: {fileID: 0}
  m_PrefabInstance: {fileID: 0}
  m_PrefabAsset: {fileID: 0}
  serializedVersion: 6
  m_Component:
  - component: {fileID: 7615126116952559818}
  m_Layer: 0
  m_Name: Left_Knee
  m_TagString: Untagged
  m_Icon: {fileID: 0}
  m_NavMeshLayer: 0
  m_StaticEditorFlags: 0
  m_IsActive: 1
--- !u!4 &7615126116952559818
Transform:
  m_ObjectHideFlags: 0
  m_CorrespondingSourceObject: {fileID: 0}
  m_PrefabInstance: {fileID: 0}
  m_PrefabAsset: {fileID: 0}
  m_GameObject: {fileID: 7615126116952853674}
  m_LocalRotation: {x: 0.08106721, y: 0.0036708158, z: -0.0072913584, w: 0.99667525}
  m_LocalPosition: {x: 0.000000005296897, y: 0.26609734, z: -5.820766e-11}
  m_LocalScale: {x: 1.0000001, y: 1, z: 1}
  m_Children:
  - {fileID: 7615126116952559860}
  m_Father: {fileID: 7615126116952559816}
  m_RootOrder: 0
  m_LocalEulerAnglesHint: {x: 0, y: 0, z: 0}
--- !u!1 &7615126116952853676
GameObject:
  m_ObjectHideFlags: 0
  m_CorrespondingSourceObject: {fileID: 0}
  m_PrefabInstance: {fileID: 0}
  m_PrefabAsset: {fileID: 0}
  serializedVersion: 6
  m_Component:
  - component: {fileID: 7615126116952559820}
  m_Layer: 0
  m_Name: Middle_Spine
  m_TagString: Untagged
  m_Icon: {fileID: 0}
  m_NavMeshLayer: 0
  m_StaticEditorFlags: 0
  m_IsActive: 1
--- !u!4 &7615126116952559820
Transform:
  m_ObjectHideFlags: 0
  m_CorrespondingSourceObject: {fileID: 0}
  m_PrefabInstance: {fileID: 0}
  m_PrefabAsset: {fileID: 0}
  m_GameObject: {fileID: 7615126116952853676}
  m_LocalRotation: {x: -0.10725311, y: -0.000000018010292, z: -0.000000028890161,
    w: 0.99423176}
  m_LocalPosition: {x: 0.0000000040010173, y: 0.14178623, z: -0.028992187}
  m_LocalScale: {x: 1, y: 0.9999999, z: 1}
  m_Children:
  - {fileID: 7615126116952559826}
  m_Father: {fileID: 7615126116952559824}
  m_RootOrder: 0
  m_LocalEulerAnglesHint: {x: 0, y: 0, z: 0}
--- !u!1 &7615126116952853678
GameObject:
  m_ObjectHideFlags: 0
  m_CorrespondingSourceObject: {fileID: 0}
  m_PrefabInstance: {fileID: 0}
  m_PrefabAsset: {fileID: 0}
  serializedVersion: 6
  m_Component:
  - component: {fileID: 7615126116952559822}
  m_Layer: 0
  m_Name: Neck_01
  m_TagString: Untagged
  m_Icon: {fileID: 0}
  m_NavMeshLayer: 0
  m_StaticEditorFlags: 0
  m_IsActive: 1
--- !u!4 &7615126116952559822
Transform:
  m_ObjectHideFlags: 0
  m_CorrespondingSourceObject: {fileID: 0}
  m_PrefabInstance: {fileID: 0}
  m_PrefabAsset: {fileID: 0}
  m_GameObject: {fileID: 7615126116952853678}
  m_LocalRotation: {x: 0.20838362, y: -0.015245557, z: -0.016557798, w: 0.9777882}
  m_LocalPosition: {x: -0.0000000018725386, y: 0.2720383, z: 0.0011036731}
  m_LocalScale: {x: 1, y: 1, z: 0.99999994}
  m_Children:
  - {fileID: 7615126116952559844}
  m_Father: {fileID: 7615126116952559826}
  m_RootOrder: 1
  m_LocalEulerAnglesHint: {x: 0, y: 0, z: 0}
--- !u!1 &7615126116952853680
GameObject:
  m_ObjectHideFlags: 0
  m_CorrespondingSourceObject: {fileID: 0}
  m_PrefabInstance: {fileID: 0}
  m_PrefabAsset: {fileID: 0}
  serializedVersion: 6
  m_Component:
  - component: {fileID: 7615126116952559824}
  m_Layer: 0
  m_Name: Spine_01
  m_TagString: Untagged
  m_Icon: {fileID: 0}
  m_NavMeshLayer: 0
  m_StaticEditorFlags: 0
  m_IsActive: 1
--- !u!4 &7615126116952559824
Transform:
  m_ObjectHideFlags: 0
  m_CorrespondingSourceObject: {fileID: 0}
  m_PrefabInstance: {fileID: 0}
  m_PrefabAsset: {fileID: 0}
  m_GameObject: {fileID: 7615126116952853680}
  m_LocalRotation: {x: 0.06334746, y: 9.826243e-10, z: 0.000000008592453, w: 0.99799156}
  m_LocalPosition: {x: -7.8202556e-10, y: 0.08245753, z: 0.006495171}
  m_LocalScale: {x: 1, y: 1, z: 0.99999994}
  m_Children:
  - {fileID: 7615126116952559820}
  m_Father: {fileID: 7615126116952559808}
  m_RootOrder: 2
  m_LocalEulerAnglesHint: {x: 0, y: 0, z: 0}
--- !u!1 &7615126116952853682
GameObject:
  m_ObjectHideFlags: 0
  m_CorrespondingSourceObject: {fileID: 0}
  m_PrefabInstance: {fileID: 0}
  m_PrefabAsset: {fileID: 0}
  serializedVersion: 6
  m_Component:
  - component: {fileID: 7615126116952559826}
  m_Layer: 0
  m_Name: Spine_03
  m_TagString: Untagged
  m_Icon: {fileID: 0}
  m_NavMeshLayer: 0
  m_StaticEditorFlags: 0
  m_IsActive: 1
--- !u!4 &7615126116952559826
Transform:
  m_ObjectHideFlags: 0
  m_CorrespondingSourceObject: {fileID: 0}
  m_PrefabInstance: {fileID: 0}
  m_PrefabAsset: {fileID: 0}
  m_GameObject: {fileID: 7615126116952853682}
  m_LocalRotation: {x: 0.0010047636, y: -0.000000016697776, z: -0.000000018084597,
    w: 0.9999995}
  m_LocalPosition: {x: 5.3290705e-15, y: 0.14148884, z: 0.0000000074505775}
  m_LocalScale: {x: 1, y: 0.99999994, z: 0.99999994}
  m_Children:
  - {fileID: 7615126116952559856}
  - {fileID: 7615126116952559822}
  - {fileID: 7615126116952559810}
  m_Father: {fileID: 7615126116952559820}
  m_RootOrder: 0
  m_LocalEulerAnglesHint: {x: 0, y: 0, z: 0}
--- !u!1 &7615126116952853684
GameObject:
  m_ObjectHideFlags: 0
  m_CorrespondingSourceObject: {fileID: 0}
  m_PrefabInstance: {fileID: 0}
  m_PrefabAsset: {fileID: 0}
  serializedVersion: 6
  m_Component:
  - component: {fileID: 7615126116952559828}
  m_Layer: 0
  m_Name: Stickman_01.c
  m_TagString: Untagged
  m_Icon: {fileID: 0}
  m_NavMeshLayer: 0
  m_StaticEditorFlags: 0
  m_IsActive: 1
--- !u!4 &7615126116952559828
Transform:
  m_ObjectHideFlags: 0
  m_CorrespondingSourceObject: {fileID: 0}
  m_PrefabInstance: {fileID: 0}
  m_PrefabAsset: {fileID: 0}
  m_GameObject: {fileID: 7615126116952853684}
  m_LocalRotation: {x: -0.7071067, y: -0.000000030908616, z: 0.000000030908623, w: 0.7071068}
  m_LocalPosition: {x: -0, y: 0, z: 0}
  m_LocalScale: {x: 1, y: 1, z: 1}
  m_Children:
  - {fileID: 7615126116952559808}
  m_Father: {fileID: 7615126116952559784}
  m_RootOrder: 6
  m_LocalEulerAnglesHint: {x: 0, y: 0, z: 0}
--- !u!1 &7615126116952853686
GameObject:
  m_ObjectHideFlags: 0
  m_CorrespondingSourceObject: {fileID: 0}
  m_PrefabInstance: {fileID: 0}
  m_PrefabAsset: {fileID: 0}
  serializedVersion: 6
  m_Component:
  - component: {fileID: 7615126116952559830}
  - component: {fileID: 7615126116941349316}
  m_Layer: 0
  m_Name: Stickman_06
  m_TagString: Untagged
  m_Icon: {fileID: 0}
  m_NavMeshLayer: 0
  m_StaticEditorFlags: 0
  m_IsActive: 1
--- !u!4 &7615126116952559830
Transform:
  m_ObjectHideFlags: 0
  m_CorrespondingSourceObject: {fileID: 0}
  m_PrefabInstance: {fileID: 0}
  m_PrefabAsset: {fileID: 0}
  m_GameObject: {fileID: 7615126116952853686}
  m_LocalRotation: {x: -6.123234e-17, y: 1, z: 6.123234e-17, w: -3.7493994e-33}
  m_LocalPosition: {x: -0, y: 0, z: 0}
  m_LocalScale: {x: 1, y: 1, z: 1}
  m_Children: []
  m_Father: {fileID: 7615126116952559784}
  m_RootOrder: 7
  m_LocalEulerAnglesHint: {x: 0, y: 0, z: 0}
--- !u!137 &7615126116941349316
SkinnedMeshRenderer:
  m_ObjectHideFlags: 0
  m_CorrespondingSourceObject: {fileID: 0}
  m_PrefabInstance: {fileID: 0}
  m_PrefabAsset: {fileID: 0}
  m_GameObject: {fileID: 7615126116952853686}
  m_Enabled: 1
  m_CastShadows: 1
  m_ReceiveShadows: 1
  m_DynamicOccludee: 1
  m_MotionVectors: 1
  m_LightProbeUsage: 1
  m_ReflectionProbeUsage: 1
  m_RenderingLayerMask: 1
  m_RendererPriority: 0
  m_Materials:
  - {fileID: 2100000, guid: 5ebf10ef0153066488e75ed746859927, type: 2}
  m_StaticBatchInfo:
    firstSubMesh: 0
    subMeshCount: 0
  m_StaticBatchRoot: {fileID: 0}
  m_ProbeAnchor: {fileID: 0}
  m_LightProbeVolumeOverride: {fileID: 0}
  m_ScaleInLightmap: 1
  m_PreserveUVs: 0
  m_IgnoreNormalsForChartDetection: 0
  m_ImportantGI: 0
  m_StitchLightmapSeams: 0
  m_SelectedEditorRenderState: 3
  m_MinimumChartSize: 4
  m_AutoUVMaxDistance: 0.5
  m_AutoUVMaxAngle: 89
  m_LightmapParameters: {fileID: 0}
  m_SortingLayerID: 0
  m_SortingLayer: 0
  m_SortingOrder: 0
  serializedVersion: 2
  m_Quality: 0
  m_UpdateWhenOffscreen: 0
  m_SkinnedMotionVectors: 1
  m_Mesh: {fileID: 4300010, guid: 9b1cce188c94efc42a1707c474a2539f, type: 3}
  m_Bones:
  - {fileID: 7615126116952559808}
  - {fileID: 7615126116952559824}
  - {fileID: 7615126116952559820}
  - {fileID: 7615126116952559826}
  - {fileID: 7615126116952559856}
  - {fileID: 7615126116952559870}
  - {fileID: 7615126116952559858}
  - {fileID: 7615126116952559862}
  - {fileID: 7615126116952559846}
  - {fileID: 7615126116952559866}
  - {fileID: 7615126116952559786}
  - {fileID: 7615126116952559790}
  - {fileID: 7615126116952559810}
  - {fileID: 7615126116952559838}
  - {fileID: 7615126116952559812}
  - {fileID: 7615126116952559832}
  - {fileID: 7615126116952559864}
  - {fileID: 7615126116952559868}
  - {fileID: 7615126116952559788}
  - {fileID: 7615126116952559776}
  - {fileID: 7615126116952559822}
  - {fileID: 7615126116952559844}
  - {fileID: 7615126116952559816}
  - {fileID: 7615126116952559818}
  - {fileID: 7615126116952559860}
  - {fileID: 7615126116952559834}
  - {fileID: 7615126116952559836}
  - {fileID: 7615126116952559814}
  m_BlendShapeWeights: []
  m_RootBone: {fileID: 7615126116952559808}
  m_AABB:
    m_Center: {x: -0.000000059604645, y: 0.36165178, z: 0.060219765}
    m_Extent: {x: 0.6789344, y: 0.96292484, z: 0.37115663}
  m_DirtyAABB: 0
--- !u!1 &7615126116952853688
GameObject:
  m_ObjectHideFlags: 0
  m_CorrespondingSourceObject: {fileID: 0}
  m_PrefabInstance: {fileID: 0}
  m_PrefabAsset: {fileID: 0}
  serializedVersion: 6
  m_Component:
  - component: {fileID: 7615126116952559832}
  m_Layer: 0
  m_Name: Right_Hand
  m_TagString: Untagged
  m_Icon: {fileID: 0}
  m_NavMeshLayer: 0
  m_StaticEditorFlags: 0
  m_IsActive: 1
--- !u!4 &7615126116952559832
Transform:
  m_ObjectHideFlags: 0
  m_CorrespondingSourceObject: {fileID: 0}
  m_PrefabInstance: {fileID: 0}
  m_PrefabAsset: {fileID: 0}
  m_GameObject: {fileID: 7615126116952853688}
  m_LocalRotation: {x: 0.11517205, y: 0.0871332, z: 0.037643183, w: 0.9888004}
  m_LocalPosition: {x: 0.000000018626451, y: 0.20542027, z: 0.000000053085387}
  m_LocalScale: {x: 1.0000001, y: 0.9999998, z: 1}
  m_Children:
  - {fileID: 7615126116952559864}
  - {fileID: 7615126116952559788}
  m_Father: {fileID: 7615126116952559812}
  m_RootOrder: 0
  m_LocalEulerAnglesHint: {x: 0, y: 0, z: 0}
--- !u!1 &7615126116952853690
GameObject:
  m_ObjectHideFlags: 0
  m_CorrespondingSourceObject: {fileID: 0}
  m_PrefabInstance: {fileID: 0}
  m_PrefabAsset: {fileID: 0}
  serializedVersion: 6
  m_Component:
  - component: {fileID: 7615126116952559834}
  m_Layer: 0
  m_Name: Right_Hips
  m_TagString: Untagged
  m_Icon: {fileID: 0}
  m_NavMeshLayer: 0
  m_StaticEditorFlags: 0
  m_IsActive: 1
--- !u!4 &7615126116952559834
Transform:
  m_ObjectHideFlags: 0
  m_CorrespondingSourceObject: {fileID: 0}
  m_PrefabInstance: {fileID: 0}
  m_PrefabAsset: {fileID: 0}
  m_GameObject: {fileID: 7615126116952853690}
  m_LocalRotation: {x: 0.9993937, y: 0.023108507, z: 0.022982089, w: 0.012251585}
  m_LocalPosition: {x: 0.13771646, y: 0.03240483, z: 0.0038953098}
  m_LocalScale: {x: 1.000002, y: 0.9999999, z: 1.0000005}
  m_Children:
  - {fileID: 7615126116952559836}
  m_Father: {fileID: 7615126116952559808}
  m_RootOrder: 1
  m_LocalEulerAnglesHint: {x: 0, y: 0, z: 0}
--- !u!1 &7615126116952853692
GameObject:
  m_ObjectHideFlags: 0
  m_CorrespondingSourceObject: {fileID: 0}
  m_PrefabInstance: {fileID: 0}
  m_PrefabAsset: {fileID: 0}
  serializedVersion: 6
  m_Component:
  - component: {fileID: 7615126116952559836}
  m_Layer: 0
  m_Name: Right_Knee
  m_TagString: Untagged
  m_Icon: {fileID: 0}
  m_NavMeshLayer: 0
  m_StaticEditorFlags: 0
  m_IsActive: 1
--- !u!4 &7615126116952559836
Transform:
  m_ObjectHideFlags: 0
  m_CorrespondingSourceObject: {fileID: 0}
  m_PrefabInstance: {fileID: 0}
  m_PrefabAsset: {fileID: 0}
  m_GameObject: {fileID: 7615126116952853692}
  m_LocalRotation: {x: 0.08106737, y: -0.0036708147, z: 0.007291443, w: 0.99667525}
  m_LocalPosition: {x: 0.000000003972673, y: 0.26609734, z: -9.313226e-10}
  m_LocalScale: {x: 1, y: 1, z: 0.99999994}
  m_Children:
  - {fileID: 7615126116952559814}
  m_Father: {fileID: 7615126116952559834}
  m_RootOrder: 0
  m_LocalEulerAnglesHint: {x: 0, y: 0, z: 0}
--- !u!1 &7615126116952853694
GameObject:
  m_ObjectHideFlags: 0
  m_CorrespondingSourceObject: {fileID: 0}
  m_PrefabInstance: {fileID: 0}
  m_PrefabAsset: {fileID: 0}
  serializedVersion: 6
  m_Component:
  - component: {fileID: 7615126116952559838}
  m_Layer: 0
  m_Name: Right_upperarm
  m_TagString: Untagged
  m_Icon: {fileID: 0}
  m_NavMeshLayer: 0
  m_StaticEditorFlags: 0
  m_IsActive: 1
--- !u!4 &7615126116952559838
Transform:
  m_ObjectHideFlags: 0
  m_CorrespondingSourceObject: {fileID: 0}
  m_PrefabInstance: {fileID: 0}
  m_PrefabAsset: {fileID: 0}
  m_GameObject: {fileID: 7615126116952853694}
  m_LocalRotation: {x: -0.25840524, y: -0.19956179, z: -0.03216757, w: 0.94465184}
  m_LocalPosition: {x: 0.000000007450581, y: 0.19021833, z: -0.000000034458935}
  m_LocalScale: {x: 0.9999999, y: 0.9999999, z: 0.99999994}
  m_Children:
  - {fileID: 7615126116952559812}
  m_Father: {fileID: 7615126116952559810}
  m_RootOrder: 0
  m_LocalEulerAnglesHint: {x: 0, y: 0, z: 0}
--- !u!1 &7615126116952853696
GameObject:
  m_ObjectHideFlags: 0
  m_CorrespondingSourceObject: {fileID: 0}
  m_PrefabInstance: {fileID: 0}
  m_PrefabAsset: {fileID: 0}
  serializedVersion: 6
  m_Component:
  - component: {fileID: 7615126116952559840}
  - component: {fileID: 7615126116941349312}
  m_Layer: 0
  m_Name: Football_7_shorts.001
  m_TagString: Untagged
  m_Icon: {fileID: 0}
  m_NavMeshLayer: 0
  m_StaticEditorFlags: 0
  m_IsActive: 1
--- !u!4 &7615126116952559840
Transform:
  m_ObjectHideFlags: 0
  m_CorrespondingSourceObject: {fileID: 0}
  m_PrefabInstance: {fileID: 0}
  m_PrefabAsset: {fileID: 0}
  m_GameObject: {fileID: 7615126116952853696}
  m_LocalRotation: {x: -6.123234e-17, y: 1, z: 6.123234e-17, w: -3.7493994e-33}
  m_LocalPosition: {x: -0, y: 0, z: 0}
  m_LocalScale: {x: 1, y: 1, z: 1}
  m_Children: []
  m_Father: {fileID: 7615126116952559784}
  m_RootOrder: 4
  m_LocalEulerAnglesHint: {x: 0, y: 0, z: 0}
--- !u!137 &7615126116941349312
SkinnedMeshRenderer:
  m_ObjectHideFlags: 0
  m_CorrespondingSourceObject: {fileID: 0}
  m_PrefabInstance: {fileID: 0}
  m_PrefabAsset: {fileID: 0}
  m_GameObject: {fileID: 7615126116952853696}
  m_Enabled: 1
  m_CastShadows: 1
  m_ReceiveShadows: 1
  m_DynamicOccludee: 1
  m_MotionVectors: 1
  m_LightProbeUsage: 1
  m_ReflectionProbeUsage: 1
  m_RenderingLayerMask: 1
  m_RendererPriority: 0
  m_Materials:
  - {fileID: 2100002, guid: 9b1cce188c94efc42a1707c474a2539f, type: 3}
  - {fileID: 2100000, guid: 0bcdca085445acc4aa21304ffa02deba, type: 2}
  m_StaticBatchInfo:
    firstSubMesh: 0
    subMeshCount: 0
  m_StaticBatchRoot: {fileID: 0}
  m_ProbeAnchor: {fileID: 0}
  m_LightProbeVolumeOverride: {fileID: 0}
  m_ScaleInLightmap: 1
  m_PreserveUVs: 0
  m_IgnoreNormalsForChartDetection: 0
  m_ImportantGI: 0
  m_StitchLightmapSeams: 0
  m_SelectedEditorRenderState: 3
  m_MinimumChartSize: 4
  m_AutoUVMaxDistance: 0.5
  m_AutoUVMaxAngle: 89
  m_LightmapParameters: {fileID: 0}
  m_SortingLayerID: 0
  m_SortingLayer: 0
  m_SortingOrder: 0
  serializedVersion: 2
  m_Quality: 0
  m_UpdateWhenOffscreen: 0
  m_SkinnedMotionVectors: 1
  m_Mesh: {fileID: 4300012, guid: 9b1cce188c94efc42a1707c474a2539f, type: 3}
  m_Bones:
  - {fileID: 7615126116952559808}
  - {fileID: 7615126116952559824}
  - {fileID: 7615126116952559820}
  - {fileID: 7615126116952559826}
  - {fileID: 7615126116952559856}
  - {fileID: 7615126116952559870}
  - {fileID: 7615126116952559858}
  - {fileID: 7615126116952559862}
  - {fileID: 7615126116952559846}
  - {fileID: 7615126116952559866}
  - {fileID: 7615126116952559786}
  - {fileID: 7615126116952559790}
  - {fileID: 7615126116952559810}
  - {fileID: 7615126116952559838}
  - {fileID: 7615126116952559812}
  - {fileID: 7615126116952559832}
  - {fileID: 7615126116952559864}
  - {fileID: 7615126116952559868}
  - {fileID: 7615126116952559788}
  - {fileID: 7615126116952559776}
  - {fileID: 7615126116952559822}
  - {fileID: 7615126116952559844}
  - {fileID: 7615126116952559816}
  - {fileID: 7615126116952559818}
  - {fileID: 7615126116952559860}
  - {fileID: 7615126116952559834}
  - {fileID: 7615126116952559836}
  - {fileID: 7615126116952559814}
  m_BlendShapeWeights: []
  m_RootBone: {fileID: 7615126116952559808}
  m_AABB:
    m_Center: {x: -0.00004198402, y: 0.05836372, z: 0.004715875}
    m_Extent: {x: 0.24604613, y: 0.20245968, z: 0.19185793}
  m_DirtyAABB: 0
--- !u!1 &7615126116952853698
GameObject:
  m_ObjectHideFlags: 0
  m_CorrespondingSourceObject: {fileID: 0}
  m_PrefabInstance: {fileID: 0}
  m_PrefabAsset: {fileID: 0}
  serializedVersion: 6
  m_Component:
  - component: {fileID: 7615126116952559842}
  - component: {fileID: 7615126116941349314}
  m_Layer: 0
  m_Name: Football_7_T_shirt
  m_TagString: Untagged
  m_Icon: {fileID: 0}
  m_NavMeshLayer: 0
  m_StaticEditorFlags: 0
  m_IsActive: 1
--- !u!4 &7615126116952559842
Transform:
  m_ObjectHideFlags: 0
  m_CorrespondingSourceObject: {fileID: 0}
  m_PrefabInstance: {fileID: 0}
  m_PrefabAsset: {fileID: 0}
  m_GameObject: {fileID: 7615126116952853698}
  m_LocalRotation: {x: -6.123234e-17, y: 1, z: 6.123234e-17, w: -3.7493994e-33}
  m_LocalPosition: {x: -0, y: 0, z: 0}
  m_LocalScale: {x: 1, y: 1, z: 1}
  m_Children: []
  m_Father: {fileID: 7615126116952559784}
  m_RootOrder: 5
  m_LocalEulerAnglesHint: {x: 0, y: 0, z: 0}
--- !u!137 &7615126116941349314
SkinnedMeshRenderer:
  m_ObjectHideFlags: 0
  m_CorrespondingSourceObject: {fileID: 0}
  m_PrefabInstance: {fileID: 0}
  m_PrefabAsset: {fileID: 0}
  m_GameObject: {fileID: 7615126116952853698}
  m_Enabled: 1
  m_CastShadows: 1
  m_ReceiveShadows: 1
  m_DynamicOccludee: 1
  m_MotionVectors: 1
  m_LightProbeUsage: 1
  m_ReflectionProbeUsage: 1
  m_RenderingLayerMask: 1
  m_RendererPriority: 0
  m_Materials:
  - {fileID: 2100000, guid: b8fdd83a6581cfd4eac84df808ce8f79, type: 2}
  - {fileID: 2100000, guid: 0bcdca085445acc4aa21304ffa02deba, type: 2}
  m_StaticBatchInfo:
    firstSubMesh: 0
    subMeshCount: 0
  m_StaticBatchRoot: {fileID: 0}
  m_ProbeAnchor: {fileID: 0}
  m_LightProbeVolumeOverride: {fileID: 0}
  m_ScaleInLightmap: 1
  m_PreserveUVs: 0
  m_IgnoreNormalsForChartDetection: 0
  m_ImportantGI: 0
  m_StitchLightmapSeams: 0
  m_SelectedEditorRenderState: 3
  m_MinimumChartSize: 4
  m_AutoUVMaxDistance: 0.5
  m_AutoUVMaxAngle: 89
  m_LightmapParameters: {fileID: 0}
  m_SortingLayerID: 0
  m_SortingLayer: 0
  m_SortingOrder: 0
  serializedVersion: 2
  m_Quality: 0
  m_UpdateWhenOffscreen: 0
  m_SkinnedMotionVectors: 1
  m_Mesh: {fileID: 4300002, guid: 9b1cce188c94efc42a1707c474a2539f, type: 3}
  m_Bones:
  - {fileID: 7615126116952559808}
  - {fileID: 7615126116952559824}
  - {fileID: 7615126116952559820}
  - {fileID: 7615126116952559826}
  - {fileID: 7615126116952559856}
  - {fileID: 7615126116952559870}
  - {fileID: 7615126116952559858}
  - {fileID: 7615126116952559862}
  - {fileID: 7615126116952559846}
  - {fileID: 7615126116952559866}
  - {fileID: 7615126116952559786}
  - {fileID: 7615126116952559790}
  - {fileID: 7615126116952559810}
  - {fileID: 7615126116952559838}
  - {fileID: 7615126116952559812}
  - {fileID: 7615126116952559832}
  - {fileID: 7615126116952559864}
  - {fileID: 7615126116952559868}
  - {fileID: 7615126116952559788}
  - {fileID: 7615126116952559776}
  - {fileID: 7615126116952559822}
  - {fileID: 7615126116952559844}
  - {fileID: 7615126116952559816}
  - {fileID: 7615126116952559818}
  - {fileID: 7615126116952559860}
  - {fileID: 7615126116952559834}
  - {fileID: 7615126116952559836}
  - {fileID: 7615126116952559814}
  m_BlendShapeWeights: []
  m_RootBone: {fileID: 7615126116952559808}
  m_AABB:
    m_Center: {x: -0.00037194788, y: 0.43326992, z: -0.014009252}
    m_Extent: {x: 0.4556579, y: 0.35296708, z: 0.2603954}
  m_DirtyAABB: 0
--- !u!1 &7615126116952853700
GameObject:
  m_ObjectHideFlags: 0
  m_CorrespondingSourceObject: {fileID: 0}
  m_PrefabInstance: {fileID: 0}
  m_PrefabAsset: {fileID: 0}
  serializedVersion: 6
  m_Component:
  - component: {fileID: 7615126116952559844}
  m_Layer: 0
  m_Name: Head
  m_TagString: Untagged
  m_Icon: {fileID: 0}
  m_NavMeshLayer: 0
  m_StaticEditorFlags: 0
  m_IsActive: 1
--- !u!4 &7615126116952559844
Transform:
  m_ObjectHideFlags: 0
  m_CorrespondingSourceObject: {fileID: 0}
  m_PrefabInstance: {fileID: 0}
  m_PrefabAsset: {fileID: 0}
  m_GameObject: {fileID: 7615126116952853700}
  m_LocalRotation: {x: -0.13974713, y: 0.021433638, z: 0.019050311, w: 0.9897719}
  m_LocalPosition: {x: -0.0000932698, y: 0.14004935, z: -0.0027594012}
  m_LocalScale: {x: 1, y: 1.0000001, z: 1.0000001}
  m_Children: []
  m_Father: {fileID: 7615126116952559822}
  m_RootOrder: 0
  m_LocalEulerAnglesHint: {x: 0, y: 0, z: 0}
--- !u!1 &7615126116952853702
GameObject:
  m_ObjectHideFlags: 0
  m_CorrespondingSourceObject: {fileID: 0}
  m_PrefabInstance: {fileID: 0}
  m_PrefabAsset: {fileID: 0}
  serializedVersion: 6
  m_Component:
  - component: {fileID: 7615126116952559846}
  m_Layer: 0
  m_Name: index_01_l
  m_TagString: Untagged
  m_Icon: {fileID: 0}
  m_NavMeshLayer: 0
  m_StaticEditorFlags: 0
  m_IsActive: 1
--- !u!4 &7615126116952559846
Transform:
  m_ObjectHideFlags: 0
  m_CorrespondingSourceObject: {fileID: 0}
  m_PrefabInstance: {fileID: 0}
  m_PrefabAsset: {fileID: 0}
  m_GameObject: {fileID: 7615126116952853702}
  m_LocalRotation: {x: -0.1609461, y: 0.21957965, z: -0.09046933, w: 0.9579647}
  m_LocalPosition: {x: 0.0013457667, y: 0.064694636, z: -0.0019589812}
  m_LocalScale: {x: 0.99999994, y: 1, z: 1}
  m_Children:
  - {fileID: 7615126116952559866}
  m_Father: {fileID: 7615126116952559862}
  m_RootOrder: 0
  m_LocalEulerAnglesHint: {x: 0, y: 0, z: 0}
--- !u!1 &7615126116952853704
GameObject:
  m_ObjectHideFlags: 0
  m_CorrespondingSourceObject: {fileID: 0}
  m_PrefabInstance: {fileID: 0}
  m_PrefabAsset: {fileID: 0}
  serializedVersion: 6
  m_Component:
  - component: {fileID: 7615126116952559848}
  - component: {fileID: 7615126116941349320}
  m_Layer: 0
  m_Name: Football_7_boots
  m_TagString: Untagged
  m_Icon: {fileID: 0}
  m_NavMeshLayer: 0
  m_StaticEditorFlags: 0
  m_IsActive: 1
--- !u!4 &7615126116952559848
Transform:
  m_ObjectHideFlags: 0
  m_CorrespondingSourceObject: {fileID: 0}
  m_PrefabInstance: {fileID: 0}
  m_PrefabAsset: {fileID: 0}
  m_GameObject: {fileID: 7615126116952853704}
  m_LocalRotation: {x: -6.123234e-17, y: 1, z: 6.123234e-17, w: -3.7493994e-33}
  m_LocalPosition: {x: -0, y: 0, z: 0}
  m_LocalScale: {x: 1, y: 1, z: 1}
  m_Children: []
  m_Father: {fileID: 7615126116952559784}
  m_RootOrder: 0
  m_LocalEulerAnglesHint: {x: 0, y: 0, z: 0}
--- !u!137 &7615126116941349320
SkinnedMeshRenderer:
  m_ObjectHideFlags: 0
  m_CorrespondingSourceObject: {fileID: 0}
  m_PrefabInstance: {fileID: 0}
  m_PrefabAsset: {fileID: 0}
  m_GameObject: {fileID: 7615126116952853704}
  m_Enabled: 1
  m_CastShadows: 1
  m_ReceiveShadows: 1
  m_DynamicOccludee: 1
  m_MotionVectors: 1
  m_LightProbeUsage: 1
  m_ReflectionProbeUsage: 1
  m_RenderingLayerMask: 1
  m_RendererPriority: 0
  m_Materials:
  - {fileID: 2100000, guid: 0bcdca085445acc4aa21304ffa02deba, type: 2}
  - {fileID: 2100000, guid: 9215627609ed83b468adbcf07894dfd3, type: 2}
  m_StaticBatchInfo:
    firstSubMesh: 0
    subMeshCount: 0
  m_StaticBatchRoot: {fileID: 0}
  m_ProbeAnchor: {fileID: 0}
  m_LightProbeVolumeOverride: {fileID: 0}
  m_ScaleInLightmap: 1
  m_PreserveUVs: 0
  m_IgnoreNormalsForChartDetection: 0
  m_ImportantGI: 0
  m_StitchLightmapSeams: 0
  m_SelectedEditorRenderState: 3
  m_MinimumChartSize: 4
  m_AutoUVMaxDistance: 0.5
  m_AutoUVMaxAngle: 89
  m_LightmapParameters: {fileID: 0}
  m_SortingLayerID: 0
  m_SortingLayer: 0
  m_SortingOrder: 0
  serializedVersion: 2
  m_Quality: 0
  m_UpdateWhenOffscreen: 0
  m_SkinnedMotionVectors: 1
  m_Mesh: {fileID: 4300008, guid: 9b1cce188c94efc42a1707c474a2539f, type: 3}
  m_Bones:
  - {fileID: 7615126116952559808}
  - {fileID: 7615126116952559824}
  - {fileID: 7615126116952559820}
  - {fileID: 7615126116952559826}
  - {fileID: 7615126116952559856}
  - {fileID: 7615126116952559870}
  - {fileID: 7615126116952559858}
  - {fileID: 7615126116952559862}
  - {fileID: 7615126116952559846}
  - {fileID: 7615126116952559866}
  - {fileID: 7615126116952559786}
  - {fileID: 7615126116952559790}
  - {fileID: 7615126116952559810}
  - {fileID: 7615126116952559838}
  - {fileID: 7615126116952559812}
  - {fileID: 7615126116952559832}
  - {fileID: 7615126116952559864}
  - {fileID: 7615126116952559868}
  - {fileID: 7615126116952559788}
  - {fileID: 7615126116952559776}
  - {fileID: 7615126116952559822}
  - {fileID: 7615126116952559844}
  - {fileID: 7615126116952559816}
  - {fileID: 7615126116952559818}
  - {fileID: 7615126116952559860}
  - {fileID: 7615126116952559834}
  - {fileID: 7615126116952559836}
  - {fileID: 7615126116952559814}
  m_BlendShapeWeights: []
  m_RootBone: {fileID: 7615126116952559808}
  m_AABB:
    m_Center: {x: -0.0001412183, y: -0.4951616, z: 0.05944626}
    m_Extent: {x: 0.28387624, y: 0.13092357, z: 0.16762172}
  m_DirtyAABB: 0
--- !u!1 &7615126116952853706
GameObject:
  m_ObjectHideFlags: 0
  m_CorrespondingSourceObject: {fileID: 0}
  m_PrefabInstance: {fileID: 0}
  m_PrefabAsset: {fileID: 0}
  serializedVersion: 6
  m_Component:
  - component: {fileID: 7615126116952559850}
  - component: {fileID: 7615126116941349322}
  m_Layer: 0
  m_Name: Football_7_cap
  m_TagString: Untagged
  m_Icon: {fileID: 0}
  m_NavMeshLayer: 0
  m_StaticEditorFlags: 0
  m_IsActive: 1
--- !u!4 &7615126116952559850
Transform:
  m_ObjectHideFlags: 0
  m_CorrespondingSourceObject: {fileID: 0}
  m_PrefabInstance: {fileID: 0}
  m_PrefabAsset: {fileID: 0}
  m_GameObject: {fileID: 7615126116952853706}
  m_LocalRotation: {x: -6.123234e-17, y: 1, z: 6.123234e-17, w: -3.7493994e-33}
  m_LocalPosition: {x: -0, y: 0, z: 0}
  m_LocalScale: {x: 1, y: 1, z: 1}
  m_Children: []
  m_Father: {fileID: 7615126116952559784}
  m_RootOrder: 1
  m_LocalEulerAnglesHint: {x: 0, y: 0, z: 0}
--- !u!137 &7615126116941349322
SkinnedMeshRenderer:
  m_ObjectHideFlags: 0
  m_CorrespondingSourceObject: {fileID: 0}
  m_PrefabInstance: {fileID: 0}
  m_PrefabAsset: {fileID: 0}
  m_GameObject: {fileID: 7615126116952853706}
  m_Enabled: 1
  m_CastShadows: 1
  m_ReceiveShadows: 1
  m_DynamicOccludee: 1
  m_MotionVectors: 1
  m_LightProbeUsage: 1
  m_ReflectionProbeUsage: 1
  m_RenderingLayerMask: 1
  m_RendererPriority: 0
  m_Materials:
  - {fileID: 2100000, guid: 0bcdca085445acc4aa21304ffa02deba, type: 2}
  - {fileID: 2100000, guid: b8fdd83a6581cfd4eac84df808ce8f79, type: 2}
  m_StaticBatchInfo:
    firstSubMesh: 0
    subMeshCount: 0
  m_StaticBatchRoot: {fileID: 0}
  m_ProbeAnchor: {fileID: 0}
  m_LightProbeVolumeOverride: {fileID: 0}
  m_ScaleInLightmap: 1
  m_PreserveUVs: 0
  m_IgnoreNormalsForChartDetection: 0
  m_ImportantGI: 0
  m_StitchLightmapSeams: 0
  m_SelectedEditorRenderState: 3
  m_MinimumChartSize: 4
  m_AutoUVMaxDistance: 0.5
  m_AutoUVMaxAngle: 89
  m_LightmapParameters: {fileID: 0}
  m_SortingLayerID: 0
  m_SortingLayer: 0
  m_SortingOrder: 0
  serializedVersion: 2
  m_Quality: 0
  m_UpdateWhenOffscreen: 0
  m_SkinnedMotionVectors: 1
  m_Mesh: {fileID: 4300000, guid: 9b1cce188c94efc42a1707c474a2539f, type: 3}
  m_Bones:
  - {fileID: 7615126116952559808}
  - {fileID: 7615126116952559824}
  - {fileID: 7615126116952559820}
  - {fileID: 7615126116952559826}
  - {fileID: 7615126116952559856}
  - {fileID: 7615126116952559870}
  - {fileID: 7615126116952559858}
  - {fileID: 7615126116952559862}
  - {fileID: 7615126116952559846}
  - {fileID: 7615126116952559866}
  - {fileID: 7615126116952559786}
  - {fileID: 7615126116952559790}
  - {fileID: 7615126116952559810}
  - {fileID: 7615126116952559838}
  - {fileID: 7615126116952559812}
  - {fileID: 7615126116952559832}
  - {fileID: 7615126116952559864}
  - {fileID: 7615126116952559868}
  - {fileID: 7615126116952559788}
  - {fileID: 7615126116952559776}
  - {fileID: 7615126116952559822}
  - {fileID: 7615126116952559844}
  - {fileID: 7615126116952559816}
  - {fileID: 7615126116952559818}
  - {fileID: 7615126116952559860}
  - {fileID: 7615126116952559834}
  - {fileID: 7615126116952559836}
  - {fileID: 7615126116952559814}
  m_BlendShapeWeights: []
  m_RootBone: {fileID: 7615126116952559808}
  m_AABB:
    m_Center: {x: 0.00027516484, y: 1.1833453, z: 0.16672432}
    m_Extent: {x: 0.26172274, y: 0.17731202, z: 0.4177789}
  m_DirtyAABB: 0
--- !u!1 &7615126116952853708
GameObject:
  m_ObjectHideFlags: 0
  m_CorrespondingSourceObject: {fileID: 0}
  m_PrefabInstance: {fileID: 0}
  m_PrefabAsset: {fileID: 0}
  serializedVersion: 6
  m_Component:
  - component: {fileID: 7615126116952559852}
  - component: {fileID: 7615126116941349324}
  m_Layer: 0
  m_Name: Football_7_gloves
  m_TagString: Untagged
  m_Icon: {fileID: 0}
  m_NavMeshLayer: 0
  m_StaticEditorFlags: 0
  m_IsActive: 1
--- !u!4 &7615126116952559852
Transform:
  m_ObjectHideFlags: 0
  m_CorrespondingSourceObject: {fileID: 0}
  m_PrefabInstance: {fileID: 0}
  m_PrefabAsset: {fileID: 0}
  m_GameObject: {fileID: 7615126116952853708}
  m_LocalRotation: {x: -6.123234e-17, y: 1, z: 6.123234e-17, w: -3.7493994e-33}
  m_LocalPosition: {x: -0, y: 0, z: 0}
  m_LocalScale: {x: 1, y: 1, z: 1}
  m_Children: []
  m_Father: {fileID: 7615126116952559784}
  m_RootOrder: 2
  m_LocalEulerAnglesHint: {x: 0, y: 0, z: 0}
--- !u!137 &7615126116941349324
SkinnedMeshRenderer:
  m_ObjectHideFlags: 0
  m_CorrespondingSourceObject: {fileID: 0}
  m_PrefabInstance: {fileID: 0}
  m_PrefabAsset: {fileID: 0}
  m_GameObject: {fileID: 7615126116952853708}
  m_Enabled: 1
  m_CastShadows: 1
  m_ReceiveShadows: 1
  m_DynamicOccludee: 1
  m_MotionVectors: 1
  m_LightProbeUsage: 1
  m_ReflectionProbeUsage: 1
  m_RenderingLayerMask: 1
  m_RendererPriority: 0
  m_Materials:
  - {fileID: 2100000, guid: 9215627609ed83b468adbcf07894dfd3, type: 2}
  - {fileID: 2100000, guid: 0bcdca085445acc4aa21304ffa02deba, type: 2}
  - {fileID: 2100000, guid: b8fdd83a6581cfd4eac84df808ce8f79, type: 2}
  m_StaticBatchInfo:
    firstSubMesh: 0
    subMeshCount: 0
  m_StaticBatchRoot: {fileID: 0}
  m_ProbeAnchor: {fileID: 0}
  m_LightProbeVolumeOverride: {fileID: 0}
  m_ScaleInLightmap: 1
  m_PreserveUVs: 0
  m_IgnoreNormalsForChartDetection: 0
  m_ImportantGI: 0
  m_StitchLightmapSeams: 0
  m_SelectedEditorRenderState: 3
  m_MinimumChartSize: 4
  m_AutoUVMaxDistance: 0.5
  m_AutoUVMaxAngle: 89
  m_LightmapParameters: {fileID: 0}
  m_SortingLayerID: 0
  m_SortingLayer: 0
  m_SortingOrder: 0
  serializedVersion: 2
  m_Quality: 0
  m_UpdateWhenOffscreen: 0
  m_SkinnedMotionVectors: 1
  m_Mesh: {fileID: 4300006, guid: 9b1cce188c94efc42a1707c474a2539f, type: 3}
  m_Bones:
  - {fileID: 7615126116952559808}
  - {fileID: 7615126116952559824}
  - {fileID: 7615126116952559820}
  - {fileID: 7615126116952559826}
  - {fileID: 7615126116952559856}
  - {fileID: 7615126116952559870}
  - {fileID: 7615126116952559858}
  - {fileID: 7615126116952559862}
  - {fileID: 7615126116952559846}
  - {fileID: 7615126116952559866}
  - {fileID: 7615126116952559786}
  - {fileID: 7615126116952559790}
  - {fileID: 7615126116952559810}
  - {fileID: 7615126116952559838}
  - {fileID: 7615126116952559812}
  - {fileID: 7615126116952559832}
  - {fileID: 7615126116952559864}
  - {fileID: 7615126116952559868}
  - {fileID: 7615126116952559788}
  - {fileID: 7615126116952559776}
  - {fileID: 7615126116952559822}
  - {fileID: 7615126116952559844}
  - {fileID: 7615126116952559816}
  - {fileID: 7615126116952559818}
  - {fileID: 7615126116952559860}
  - {fileID: 7615126116952559834}
  - {fileID: 7615126116952559836}
  - {fileID: 7615126116952559814}
  m_BlendShapeWeights: []
  m_RootBone: {fileID: 7615126116952559808}
  m_AABB:
    m_Center: {x: 0, y: 0.23574933, z: 0.07546345}
    m_Extent: {x: 0.79027605, y: 0.20782053, z: 0.20600948}
  m_DirtyAABB: 0
--- !u!1 &7615126116952853710
GameObject:
  m_ObjectHideFlags: 0
  m_CorrespondingSourceObject: {fileID: 0}
  m_PrefabInstance: {fileID: 0}
  m_PrefabAsset: {fileID: 0}
  serializedVersion: 6
  m_Component:
  - component: {fileID: 7615126116952559854}
  - component: {fileID: 7615126116941349326}
  m_Layer: 0
  m_Name: Football_7_shorts
  m_TagString: Untagged
  m_Icon: {fileID: 0}
  m_NavMeshLayer: 0
  m_StaticEditorFlags: 0
  m_IsActive: 1
--- !u!4 &7615126116952559854
Transform:
  m_ObjectHideFlags: 0
  m_CorrespondingSourceObject: {fileID: 0}
  m_PrefabInstance: {fileID: 0}
  m_PrefabAsset: {fileID: 0}
  m_GameObject: {fileID: 7615126116952853710}
  m_LocalRotation: {x: -6.123234e-17, y: 1, z: 6.123234e-17, w: -3.7493994e-33}
  m_LocalPosition: {x: -0, y: 0, z: 0}
  m_LocalScale: {x: 1, y: 1, z: 1}
  m_Children: []
  m_Father: {fileID: 7615126116952559784}
  m_RootOrder: 3
  m_LocalEulerAnglesHint: {x: 0, y: 0, z: 0}
--- !u!137 &7615126116941349326
SkinnedMeshRenderer:
  m_ObjectHideFlags: 0
  m_CorrespondingSourceObject: {fileID: 0}
  m_PrefabInstance: {fileID: 0}
  m_PrefabAsset: {fileID: 0}
  m_GameObject: {fileID: 7615126116952853710}
  m_Enabled: 1
  m_CastShadows: 1
  m_ReceiveShadows: 1
  m_DynamicOccludee: 1
  m_MotionVectors: 1
  m_LightProbeUsage: 1
  m_ReflectionProbeUsage: 1
  m_RenderingLayerMask: 1
  m_RendererPriority: 0
  m_Materials:
  - {fileID: 2100000, guid: b8fdd83a6581cfd4eac84df808ce8f79, type: 2}
  - {fileID: 2100000, guid: 0bcdca085445acc4aa21304ffa02deba, type: 2}
  m_StaticBatchInfo:
    firstSubMesh: 0
    subMeshCount: 0
  m_StaticBatchRoot: {fileID: 0}
  m_ProbeAnchor: {fileID: 0}
  m_LightProbeVolumeOverride: {fileID: 0}
  m_ScaleInLightmap: 1
  m_PreserveUVs: 0
  m_IgnoreNormalsForChartDetection: 0
  m_ImportantGI: 0
  m_StitchLightmapSeams: 0
  m_SelectedEditorRenderState: 3
  m_MinimumChartSize: 4
  m_AutoUVMaxDistance: 0.5
  m_AutoUVMaxAngle: 89
  m_LightmapParameters: {fileID: 0}
  m_SortingLayerID: 0
  m_SortingLayer: 0
  m_SortingOrder: 0
  serializedVersion: 2
  m_Quality: 0
  m_UpdateWhenOffscreen: 0
  m_SkinnedMotionVectors: 1
  m_Mesh: {fileID: 4300004, guid: 9b1cce188c94efc42a1707c474a2539f, type: 3}
  m_Bones:
  - {fileID: 7615126116952559808}
  - {fileID: 7615126116952559824}
  - {fileID: 7615126116952559820}
  - {fileID: 7615126116952559826}
  - {fileID: 7615126116952559856}
  - {fileID: 7615126116952559870}
  - {fileID: 7615126116952559858}
  - {fileID: 7615126116952559862}
  - {fileID: 7615126116952559846}
  - {fileID: 7615126116952559866}
  - {fileID: 7615126116952559786}
  - {fileID: 7615126116952559790}
  - {fileID: 7615126116952559810}
  - {fileID: 7615126116952559838}
  - {fileID: 7615126116952559812}
  - {fileID: 7615126116952559832}
  - {fileID: 7615126116952559864}
  - {fileID: 7615126116952559868}
  - {fileID: 7615126116952559788}
  - {fileID: 7615126116952559776}
  - {fileID: 7615126116952559822}
  - {fileID: 7615126116952559844}
  - {fileID: 7615126116952559816}
  - {fileID: 7615126116952559818}
  - {fileID: 7615126116952559860}
  - {fileID: 7615126116952559834}
  - {fileID: 7615126116952559836}
  - {fileID: 7615126116952559814}
  m_BlendShapeWeights: []
  m_RootBone: {fileID: 7615126116952559808}
  m_AABB:
    m_Center: {x: -0.00012306869, y: -0.36264607, z: 0.031482063}
    m_Extent: {x: 0.26405692, y: 0.17754379, z: 0.10995761}
  m_DirtyAABB: 0
--- !u!1 &7615126116952853712
GameObject:
  m_ObjectHideFlags: 0
  m_CorrespondingSourceObject: {fileID: 0}
  m_PrefabInstance: {fileID: 0}
  m_PrefabAsset: {fileID: 0}
  serializedVersion: 6
  m_Component:
  - component: {fileID: 7615126116952559856}
  m_Layer: 0
  m_Name: Left_Clavicle
  m_TagString: Untagged
  m_Icon: {fileID: 0}
  m_NavMeshLayer: 0
  m_StaticEditorFlags: 0
  m_IsActive: 1
--- !u!4 &7615126116952559856
Transform:
  m_ObjectHideFlags: 0
  m_CorrespondingSourceObject: {fileID: 0}
  m_PrefabInstance: {fileID: 0}
  m_PrefabAsset: {fileID: 0}
  m_GameObject: {fileID: 7615126116952853712}
  m_LocalRotation: {x: -0.59568423, y: 0.41705656, z: 0.45295465, w: 0.5158064}
  m_LocalPosition: {x: -0.028851531, y: 0.23799899, z: 0.022128837}
  m_LocalScale: {x: 0.99999994, y: 1, z: 0.9999999}
  m_Children:
  - {fileID: 7615126116952559870}
  m_Father: {fileID: 7615126116952559826}
  m_RootOrder: 0
  m_LocalEulerAnglesHint: {x: 0, y: 0, z: 0}
--- !u!1 &7615126116952853714
GameObject:
  m_ObjectHideFlags: 0
  m_CorrespondingSourceObject: {fileID: 0}
  m_PrefabInstance: {fileID: 0}
  m_PrefabAsset: {fileID: 0}
  serializedVersion: 6
  m_Component:
  - component: {fileID: 7615126116952559858}
  m_Layer: 0
  m_Name: Left_Elbow
  m_TagString: Untagged
  m_Icon: {fileID: 0}
  m_NavMeshLayer: 0
  m_StaticEditorFlags: 0
  m_IsActive: 1
--- !u!4 &7615126116952559858
Transform:
  m_ObjectHideFlags: 0
  m_CorrespondingSourceObject: {fileID: 0}
  m_PrefabInstance: {fileID: 0}
  m_PrefabAsset: {fileID: 0}
  m_GameObject: {fileID: 7615126116952853714}
  m_LocalRotation: {x: -0.16277441, y: 0.082741044, z: 0.09344992, w: 0.9787367}
  m_LocalPosition: {x: -0.000000022351742, y: 0.21563269, z: -0.000000011175871}
  m_LocalScale: {x: 1, y: 1, z: 1}
  m_Children:
  - {fileID: 7615126116952559862}
  m_Father: {fileID: 7615126116952559870}
  m_RootOrder: 0
  m_LocalEulerAnglesHint: {x: 0, y: 0, z: 0}
--- !u!1 &7615126116952853716
GameObject:
  m_ObjectHideFlags: 0
  m_CorrespondingSourceObject: {fileID: 0}
  m_PrefabInstance: {fileID: 0}
  m_PrefabAsset: {fileID: 0}
  serializedVersion: 6
  m_Component:
  - component: {fileID: 7615126116952559860}
  m_Layer: 0
  m_Name: Left_Foot
  m_TagString: Untagged
  m_Icon: {fileID: 0}
  m_NavMeshLayer: 0
  m_StaticEditorFlags: 0
  m_IsActive: 1
--- !u!4 &7615126116952559860
Transform:
  m_ObjectHideFlags: 0
  m_CorrespondingSourceObject: {fileID: 0}
  m_PrefabInstance: {fileID: 0}
  m_PrefabAsset: {fileID: 0}
  m_GameObject: {fileID: 7615126116952853716}
  m_LocalRotation: {x: -0.69946593, y: -0.16125737, z: 0.21227753, w: 0.66308504}
  m_LocalPosition: {x: -0.00041538768, y: 0.2695153, z: 0.00011113705}
  m_LocalScale: {x: 1, y: 1, z: 1.0000001}
  m_Children: []
  m_Father: {fileID: 7615126116952559818}
  m_RootOrder: 0
  m_LocalEulerAnglesHint: {x: 0, y: 0, z: 0}
--- !u!1 &7615126116952853718
GameObject:
  m_ObjectHideFlags: 0
  m_CorrespondingSourceObject: {fileID: 0}
  m_PrefabInstance: {fileID: 0}
  m_PrefabAsset: {fileID: 0}
  serializedVersion: 6
  m_Component:
  - component: {fileID: 7615126116952559862}
  m_Layer: 0
  m_Name: Left_Hand
  m_TagString: Untagged
  m_Icon: {fileID: 0}
  m_NavMeshLayer: 0
  m_StaticEditorFlags: 0
  m_IsActive: 1
--- !u!4 &7615126116952559862
Transform:
  m_ObjectHideFlags: 0
  m_CorrespondingSourceObject: {fileID: 0}
  m_PrefabInstance: {fileID: 0}
  m_PrefabAsset: {fileID: 0}
  m_GameObject: {fileID: 7615126116952853718}
  m_LocalRotation: {x: 0.11517208, y: -0.08713318, z: -0.037643183, w: 0.9888004}
  m_LocalPosition: {x: -0.000000033527613, y: 0.2054203, z: -0.000000019557774}
  m_LocalScale: {x: 1, y: 0.9999999, z: 0.99999994}
  m_Children:
  - {fileID: 7615126116952559846}
  - {fileID: 7615126116952559786}
  m_Father: {fileID: 7615126116952559858}
  m_RootOrder: 0
  m_LocalEulerAnglesHint: {x: 0, y: 0, z: 0}
--- !u!1 &7615126116952853720
GameObject:
  m_ObjectHideFlags: 0
  m_CorrespondingSourceObject: {fileID: 0}
  m_PrefabInstance: {fileID: 0}
  m_PrefabAsset: {fileID: 0}
  serializedVersion: 6
  m_Component:
  - component: {fileID: 7615126116952559864}
  m_Layer: 0
  m_Name: index_01_r
  m_TagString: Untagged
  m_Icon: {fileID: 0}
  m_NavMeshLayer: 0
  m_StaticEditorFlags: 0
  m_IsActive: 1
--- !u!4 &7615126116952559864
Transform:
  m_ObjectHideFlags: 0
  m_CorrespondingSourceObject: {fileID: 0}
  m_PrefabInstance: {fileID: 0}
  m_PrefabAsset: {fileID: 0}
  m_GameObject: {fileID: 7615126116952853720}
  m_LocalRotation: {x: -0.16094604, y: -0.21957964, z: 0.09046929, w: 0.9579648}
  m_LocalPosition: {x: -0.0013457779, y: 0.06469457, z: -0.0019590333}
  m_LocalScale: {x: 0.9999999, y: 1, z: 1}
  m_Children:
  - {fileID: 7615126116952559868}
  m_Father: {fileID: 7615126116952559832}
  m_RootOrder: 0
  m_LocalEulerAnglesHint: {x: 0, y: 0, z: 0}
--- !u!1 &7615126116952853722
GameObject:
  m_ObjectHideFlags: 0
  m_CorrespondingSourceObject: {fileID: 0}
  m_PrefabInstance: {fileID: 0}
  m_PrefabAsset: {fileID: 0}
  serializedVersion: 6
  m_Component:
  - component: {fileID: 7615126116952559866}
  m_Layer: 0
  m_Name: index_02_l
  m_TagString: Untagged
  m_Icon: {fileID: 0}
  m_NavMeshLayer: 0
  m_StaticEditorFlags: 0
  m_IsActive: 1
--- !u!4 &7615126116952559866
Transform:
  m_ObjectHideFlags: 0
  m_CorrespondingSourceObject: {fileID: 0}
  m_PrefabInstance: {fileID: 0}
  m_PrefabAsset: {fileID: 0}
  m_GameObject: {fileID: 7615126116952853722}
  m_LocalRotation: {x: -0.050874952, y: 0.17318834, z: -0.12286643, w: 0.97586954}
  m_LocalPosition: {x: 0.000000007450581, y: 0.026067086, z: -0.00000006891787}
  m_LocalScale: {x: 1, y: 1.0000001, z: 1}
  m_Children: []
  m_Father: {fileID: 7615126116952559846}
  m_RootOrder: 0
  m_LocalEulerAnglesHint: {x: 0, y: 0, z: 0}
--- !u!1 &7615126116952853724
GameObject:
  m_ObjectHideFlags: 0
  m_CorrespondingSourceObject: {fileID: 0}
  m_PrefabInstance: {fileID: 0}
  m_PrefabAsset: {fileID: 0}
  serializedVersion: 6
  m_Component:
  - component: {fileID: 7615126116952559868}
  m_Layer: 0
  m_Name: index_02_r
  m_TagString: Untagged
  m_Icon: {fileID: 0}
  m_NavMeshLayer: 0
  m_StaticEditorFlags: 0
  m_IsActive: 1
--- !u!4 &7615126116952559868
Transform:
  m_ObjectHideFlags: 0
  m_CorrespondingSourceObject: {fileID: 0}
  m_PrefabInstance: {fileID: 0}
  m_PrefabAsset: {fileID: 0}
  m_GameObject: {fileID: 7615126116952853724}
  m_LocalRotation: {x: -0.05087499, y: -0.17318833, z: 0.12286642, w: 0.97586954}
  m_LocalPosition: {x: 0.000000067055225, y: 0.026067115, z: 0.00000004656613}
  m_LocalScale: {x: 1, y: 1, z: 1}
  m_Children: []
  m_Father: {fileID: 7615126116952559864}
  m_RootOrder: 0
  m_LocalEulerAnglesHint: {x: 0, y: 0, z: 0}
--- !u!1 &7615126116952853726
GameObject:
  m_ObjectHideFlags: 0
  m_CorrespondingSourceObject: {fileID: 0}
  m_PrefabInstance: {fileID: 0}
  m_PrefabAsset: {fileID: 0}
  serializedVersion: 6
  m_Component:
  - component: {fileID: 7615126116952559870}
  m_Layer: 0
  m_Name: Left_Arm
  m_TagString: Untagged
  m_Icon: {fileID: 0}
  m_NavMeshLayer: 0
  m_StaticEditorFlags: 0
  m_IsActive: 1
--- !u!4 &7615126116952559870
Transform:
  m_ObjectHideFlags: 0
  m_CorrespondingSourceObject: {fileID: 0}
  m_PrefabInstance: {fileID: 0}
  m_PrefabAsset: {fileID: 0}
  m_GameObject: {fileID: 7615126116952853726}
  m_LocalRotation: {x: -0.2584053, y: 0.19956191, z: 0.03216755, w: 0.9446518}
  m_LocalPosition: {x: -0.000000011175871, y: 0.19021836, z: -0.00000015832484}
  m_LocalScale: {x: 0.99999994, y: 1, z: 1}
  m_Children:
  - {fileID: 7615126116952559858}
  m_Father: {fileID: 7615126116952559856}
  m_RootOrder: 0
  m_LocalEulerAnglesHint: {x: 0, y: 0, z: 0}
